<?xml version="1.0" encoding="UTF-8"?>
<ModuleFile xmlns:xsi="http://www.w3.org/2001/XMLSchema-instance" >

	<UiMod name="LibStub" version="1.4.0" date="2010/12">
		<Author name="ace" email="ace@gmail.com" />
		<Description text="LibStub is a simple versioning stub meant for use in Libraries." />
		<VersionSettings gameVersion="1.4.8" windowsVersion="1.0" savedVariablesVersion="1.0" />
		
		<Files>
			<File name="LibStub.lua" />
		</Files>
	</UiMod>
</ModuleFile>